<mxfile host="app.diagrams.net" modified="2022-05-13T07:24:55.812Z" agent="5.0 (Macintosh; Intel Mac OS X 10_15_7) AppleWebKit/537.36 (KHTML, like Gecko) Chrome/101.0.4951.64 Safari/537.36" etag="n-EgINp2qMhEjI_c5GEr" version="18.0.2" type="gitlab" pages="7">
  <diagram id="Zigh8vCpXaXvpmhyB5nF" name="Index">
    <mxGraphModel dx="2066" dy="1128" grid="1" gridSize="10" guides="1" tooltips="1" connect="1" arrows="1" fold="1" page="1" pageScale="1" pageWidth="827" pageHeight="1169" math="0" shadow="0">
      <root>
        <mxCell id="0" />
        <mxCell id="1" parent="0" />
        <mxCell id="LixP2ygESqxd_IDCevcl-1" value="Index&lt;br style=&quot;font-size: 38px;&quot;&gt;" style="text;html=1;align=center;verticalAlign=middle;resizable=0;points=[];autosize=1;strokeColor=none;fillColor=none;fontSize=38;" parent="1" vertex="1">
          <mxGeometry x="359" y="20" width="110" height="50" as="geometry" />
        </mxCell>
        <mxCell id="LixP2ygESqxd_IDCevcl-2" value="User" style="rounded=0;whiteSpace=wrap;html=1;fontSize=38;" parent="1" vertex="1">
          <mxGeometry x="120" y="290" width="580" height="30" as="geometry" />
        </mxCell>
        <mxCell id="LixP2ygESqxd_IDCevcl-3" value="PW" style="rounded=0;whiteSpace=wrap;html=1;fontSize=38;" parent="1" vertex="1">
          <mxGeometry x="124" y="360" width="580" height="30" as="geometry" />
        </mxCell>
        <mxCell id="LixP2ygESqxd_IDCevcl-4" value="Login" style="rounded=1;whiteSpace=wrap;html=1;fontSize=38;" parent="1" vertex="1">
          <mxGeometry x="320" y="430" width="120" height="60" as="geometry" />
        </mxCell>
        <mxCell id="LixP2ygESqxd_IDCevcl-5" value="Register" style="rounded=1;whiteSpace=wrap;html=1;fontSize=38;" parent="1" vertex="1">
          <mxGeometry x="469" y="430" width="140" height="60" as="geometry" />
        </mxCell>
        <mxCell id="LixP2ygESqxd_IDCevcl-6" value="G(Optional)" style="ellipse;whiteSpace=wrap;html=1;aspect=fixed;fontSize=38;" parent="1" vertex="1">
          <mxGeometry x="400" y="530" width="80" height="80" as="geometry" />
        </mxCell>
      </root>
    </mxGraphModel>
  </diagram>
  <diagram id="qsJIG07q9Qu7SlkcWwUX" name="Register">
    <mxGraphModel dx="2066" dy="1128" grid="1" gridSize="10" guides="1" tooltips="1" connect="1" arrows="1" fold="1" page="1" pageScale="1" pageWidth="827" pageHeight="1169" math="0" shadow="0">
      <root>
        <mxCell id="0" />
        <mxCell id="1" parent="0" />
        <mxCell id="8-lPMlOE4CLkVlxa9nS6-1" value="Register&lt;br&gt;" style="text;html=1;align=center;verticalAlign=middle;resizable=0;points=[];autosize=1;strokeColor=none;fillColor=none;fontSize=38;" parent="1" vertex="1">
          <mxGeometry x="330" y="40" width="160" height="50" as="geometry" />
        </mxCell>
        <mxCell id="8-lPMlOE4CLkVlxa9nS6-2" value="Register Form" style="rounded=1;whiteSpace=wrap;html=1;fontSize=38;" parent="1" vertex="1">
          <mxGeometry x="184" y="150" width="460" height="570" as="geometry" />
        </mxCell>
        <mxCell id="8-lPMlOE4CLkVlxa9nS6-3" value="Submit" style="rounded=1;whiteSpace=wrap;html=1;fontSize=38;" parent="1" vertex="1">
          <mxGeometry x="260" y="730" width="120" height="60" as="geometry" />
        </mxCell>
        <mxCell id="8-lPMlOE4CLkVlxa9nS6-4" value="Back to Homepage" style="rounded=1;whiteSpace=wrap;html=1;fontSize=38;" parent="1" vertex="1">
          <mxGeometry x="120" y="810" width="590" height="40" as="geometry" />
        </mxCell>
        <mxCell id="8-lPMlOE4CLkVlxa9nS6-5" value="Reset" style="rounded=1;whiteSpace=wrap;html=1;fontSize=38;" parent="1" vertex="1">
          <mxGeometry x="450" y="730" width="120" height="60" as="geometry" />
        </mxCell>
      </root>
    </mxGraphModel>
  </diagram>
  <diagram id="0nNJcF-8ZsONl-vyHQz6" name="Home">
    <mxGraphModel dx="2066" dy="1128" grid="1" gridSize="10" guides="1" tooltips="1" connect="1" arrows="1" fold="1" page="1" pageScale="1" pageWidth="827" pageHeight="1169" math="0" shadow="0">
      <root>
        <mxCell id="0" />
        <mxCell id="1" parent="0" />
        <mxCell id="PUeVCTauFHKTQOA76jDi-1" value="Home&lt;br&gt;" style="text;html=1;align=center;verticalAlign=middle;resizable=0;points=[];autosize=1;strokeColor=none;fillColor=none;fontSize=38;" parent="1" vertex="1">
          <mxGeometry x="321" y="114" width="120" height="50" as="geometry" />
        </mxCell>
        <mxCell id="PUeVCTauFHKTQOA76jDi-2" value="Profile" style="swimlane;fontSize=38;startSize=23;" parent="1" vertex="1">
          <mxGeometry x="577" y="84" width="225" height="357.5" as="geometry" />
        </mxCell>
        <mxCell id="PUeVCTauFHKTQOA76jDi-3" value="Name" style="text;html=1;align=center;verticalAlign=middle;resizable=0;points=[];autosize=1;strokeColor=none;fillColor=none;fontSize=38;" parent="PUeVCTauFHKTQOA76jDi-2" vertex="1">
          <mxGeometry x="52.5" y="40" width="120" height="50" as="geometry" />
        </mxCell>
        <mxCell id="PUeVCTauFHKTQOA76jDi-4" value="Height/Weight" style="text;html=1;align=center;verticalAlign=middle;resizable=0;points=[];autosize=1;strokeColor=none;fillColor=none;fontSize=38;" parent="PUeVCTauFHKTQOA76jDi-2" vertex="1">
          <mxGeometry x="-25" y="80" width="250" height="50" as="geometry" />
        </mxCell>
        <mxCell id="PUeVCTauFHKTQOA76jDi-5" value="Total Hours" style="text;html=1;align=center;verticalAlign=middle;resizable=0;points=[];autosize=1;strokeColor=none;fillColor=none;fontSize=38;" parent="PUeVCTauFHKTQOA76jDi-2" vertex="1">
          <mxGeometry y="125" width="210" height="50" as="geometry" />
        </mxCell>
        <mxCell id="PUeVCTauFHKTQOA76jDi-7" value="Details" style="ellipse;whiteSpace=wrap;html=1;fontSize=38;" parent="PUeVCTauFHKTQOA76jDi-2" vertex="1">
          <mxGeometry x="52.5" y="175" width="120" height="80" as="geometry" />
        </mxCell>
        <mxCell id="gUNbB-BzWYrhcXTOiTTD-2" value="Google Map" style="rounded=1;whiteSpace=wrap;html=1;fontSize=38;" parent="PUeVCTauFHKTQOA76jDi-2" vertex="1">
          <mxGeometry x="-15" y="270" width="240" height="80" as="geometry" />
        </mxCell>
        <mxCell id="gUNbB-BzWYrhcXTOiTTD-1" value="Youtube activities&lt;br&gt;" style="rounded=1;whiteSpace=wrap;html=1;fontSize=38;" parent="1" vertex="1">
          <mxGeometry x="2" y="684" width="500" height="430" as="geometry" />
        </mxCell>
        <mxCell id="U3HIxu8yEZ9HJZbusd1S-1" value="Input manual activities&lt;br&gt;-Hours&lt;br&gt;(-Types)" style="rounded=1;whiteSpace=wrap;html=1;fontSize=27;" parent="1" vertex="1">
          <mxGeometry x="20" y="324" width="720" height="240" as="geometry" />
        </mxCell>
        <mxCell id="yoUsCiW4Ty0Vp2s2QbSU-1" value="Timer" style="rounded=1;whiteSpace=wrap;html=1;fontSize=38;" parent="1" vertex="1">
          <mxGeometry x="502" y="854" width="300" height="60" as="geometry" />
        </mxCell>
        <mxCell id="yoUsCiW4Ty0Vp2s2QbSU-2" value="&lt;font style=&quot;font-size: 27px&quot;&gt;Start&lt;/font&gt;" style="ellipse;whiteSpace=wrap;html=1;aspect=fixed;fontSize=38;" parent="1" vertex="1">
          <mxGeometry x="477" y="844" width="80" height="80" as="geometry" />
        </mxCell>
        <mxCell id="yoUsCiW4Ty0Vp2s2QbSU-3" value="Pause" style="ellipse;whiteSpace=wrap;html=1;aspect=fixed;fontSize=27;" parent="1" vertex="1">
          <mxGeometry x="747" y="844" width="80" height="80" as="geometry" />
        </mxCell>
        <mxCell id="yoUsCiW4Ty0Vp2s2QbSU-4" value="Finish" style="ellipse;whiteSpace=wrap;html=1;aspect=fixed;fontSize=27;" parent="1" vertex="1">
          <mxGeometry x="627" y="934" width="80" height="80" as="geometry" />
        </mxCell>
        <mxCell id="BZBZ40GaVII5t83rsXVE-1" value="Submit" style="rounded=1;whiteSpace=wrap;html=1;fontSize=27;" parent="1" vertex="1">
          <mxGeometry x="547" y="484" width="120" height="60" as="geometry" />
        </mxCell>
      </root>
    </mxGraphModel>
  </diagram>
  <diagram id="_TjB-lZW5k4ezuv-JT8c" name="Details">
    <mxGraphModel dx="2066" dy="1032" grid="1" gridSize="10" guides="1" tooltips="1" connect="1" arrows="1" fold="1" page="1" pageScale="1" pageWidth="827" pageHeight="1169" math="0" shadow="0">
      <root>
        <mxCell id="0" />
        <mxCell id="1" parent="0" />
        <mxCell id="8ipUq-8_AOJ0YRsYb7YZ-1" value="User Profile" style="rounded=1;whiteSpace=wrap;html=1;fontSize=38;" parent="1" vertex="1">
          <mxGeometry x="10" y="20" width="790" height="560" as="geometry" />
        </mxCell>
        <mxCell id="8ipUq-8_AOJ0YRsYb7YZ-2" value="Profile Pic" style="whiteSpace=wrap;html=1;aspect=fixed;fontSize=38;" parent="1" vertex="1">
          <mxGeometry x="50" y="50" width="140" height="140" as="geometry" />
        </mxCell>
        <mxCell id="8ipUq-8_AOJ0YRsYb7YZ-3" value="Dis-Name" style="rounded=0;whiteSpace=wrap;html=1;fontSize=38;" parent="1" vertex="1">
          <mxGeometry x="50" y="200" width="180" height="60" as="geometry" />
        </mxCell>
        <mxCell id="8ipUq-8_AOJ0YRsYb7YZ-4" value="M/F" style="rounded=0;whiteSpace=wrap;html=1;fontSize=38;" parent="1" vertex="1">
          <mxGeometry x="70" y="280" width="120" height="60" as="geometry" />
        </mxCell>
        <mxCell id="8ipUq-8_AOJ0YRsYb7YZ-5" value="Weight" style="rounded=0;whiteSpace=wrap;html=1;fontSize=38;" parent="1" vertex="1">
          <mxGeometry x="70" y="350" width="120" height="60" as="geometry" />
        </mxCell>
        <mxCell id="8ipUq-8_AOJ0YRsYb7YZ-6" value="Height" style="rounded=0;whiteSpace=wrap;html=1;fontSize=38;" parent="1" vertex="1">
          <mxGeometry x="70" y="420" width="120" height="60" as="geometry" />
        </mxCell>
        <mxCell id="8ipUq-8_AOJ0YRsYb7YZ-8" value="" style="rounded=1;whiteSpace=wrap;html=1;fontSize=38;" parent="1" vertex="1">
          <mxGeometry x="10" y="600" width="790" height="475" as="geometry" />
        </mxCell>
        <mxCell id="8ipUq-8_AOJ0YRsYb7YZ-9" value="Chart&lt;br&gt;-Weekly&lt;br&gt;-Monthly" style="rounded=0;whiteSpace=wrap;html=1;fontSize=38;" parent="1" vertex="1">
          <mxGeometry x="110" y="620" width="270" height="220" as="geometry" />
        </mxCell>
        <mxCell id="8ipUq-8_AOJ0YRsYb7YZ-10" value="Edit&lt;br&gt;(Same page) AJAX" style="rounded=0;whiteSpace=wrap;html=1;fontSize=38;" parent="1" vertex="1">
          <mxGeometry x="500" y="30" width="240" height="120" as="geometry" />
        </mxCell>
        <mxCell id="8ipUq-8_AOJ0YRsYb7YZ-11" value="Activities List&amp;nbsp;&lt;br&gt;Past Record" style="rounded=0;whiteSpace=wrap;html=1;fontSize=38;" parent="1" vertex="1">
          <mxGeometry x="110" y="867.5" width="400" height="180" as="geometry" />
        </mxCell>
        <mxCell id="RRYGuZlRPNqi6D8eWUx4-1" value="-" style="ellipse;whiteSpace=wrap;html=1;aspect=fixed;fontSize=27;" parent="1" vertex="1">
          <mxGeometry x="460" y="990" width="80" height="80" as="geometry" />
        </mxCell>
        <mxCell id="RRYGuZlRPNqi6D8eWUx4-2" value="" style="html=1;verticalLabelPosition=bottom;align=center;labelBackgroundColor=#ffffff;verticalAlign=top;strokeWidth=2;strokeColor=#0080F0;shadow=0;dashed=0;shape=mxgraph.ios7.icons.trashcan;fontSize=27;" parent="1" vertex="1">
          <mxGeometry x="488" y="1017.5" width="24" height="30" as="geometry" />
        </mxCell>
        <mxCell id="vjwBknmiWviy84Mv1ZK9-1" value="Back" style="rounded=1;whiteSpace=wrap;html=1;fontSize=38;" parent="1" vertex="1">
          <mxGeometry x="20" width="120" height="60" as="geometry" />
        </mxCell>
      </root>
    </mxGraphModel>
  </diagram>
  <diagram id="bo3VHgXzjsddkmMpOXtg" name="Google Map">
    <mxGraphModel dx="2066" dy="1032" grid="1" gridSize="10" guides="1" tooltips="1" connect="1" arrows="1" fold="1" page="1" pageScale="1" pageWidth="827" pageHeight="1169" math="0" shadow="0">
      <root>
        <mxCell id="0" />
        <mxCell id="1" parent="0" />
        <mxCell id="yJ5Q4RQpWdKpe5mek_Gq-1" value="Map (Gym Location)" style="rounded=1;whiteSpace=wrap;html=1;fontSize=38;" parent="1" vertex="1">
          <mxGeometry x="60" y="40" width="690" height="520" as="geometry" />
        </mxCell>
        <mxCell id="yJ5Q4RQpWdKpe5mek_Gq-2" value="Gym Details List" style="rounded=0;whiteSpace=wrap;html=1;fontSize=38;" parent="1" vertex="1">
          <mxGeometry x="80" y="580" width="650" height="440" as="geometry" />
        </mxCell>
        <mxCell id="Pw8f3KLKgeW0g5SKXewn-1" value="Are you ready ?" style="rounded=1;whiteSpace=wrap;html=1;fontSize=38;" parent="1" vertex="1">
          <mxGeometry x="252" y="1030" width="306" height="60" as="geometry" />
        </mxCell>
      </root>
    </mxGraphModel>
  </diagram>
  <diagram id="BCUUf3g9DwciJqvmnX2Y" name="Create Event">
    <mxGraphModel dx="2066" dy="1067" grid="1" gridSize="10" guides="1" tooltips="1" connect="1" arrows="1" fold="1" page="1" pageScale="1" pageWidth="827" pageHeight="1169" math="0" shadow="0">
      <root>
        <mxCell id="0" />
        <mxCell id="1" parent="0" />
        <mxCell id="RBnPao2L3OvBG6ytkquU-1" value="Event Name" style="rounded=1;whiteSpace=wrap;html=1;" parent="1" vertex="1">
          <mxGeometry x="250" y="110" width="330" height="60" as="geometry" />
        </mxCell>
        <mxCell id="1W4ZZB6r4rg8j5j9kjqg-1" value="Date" style="rounded=1;whiteSpace=wrap;html=1;" vertex="1" parent="1">
          <mxGeometry x="250" y="210" width="330" height="60" as="geometry" />
        </mxCell>
        <mxCell id="1W4ZZB6r4rg8j5j9kjqg-2" value="Time" style="rounded=1;whiteSpace=wrap;html=1;" vertex="1" parent="1">
          <mxGeometry x="249" y="280" width="330" height="60" as="geometry" />
        </mxCell>
        <mxCell id="1W4ZZB6r4rg8j5j9kjqg-3" value="Limit" style="rounded=1;whiteSpace=wrap;html=1;" vertex="1" parent="1">
          <mxGeometry x="249" y="420" width="330" height="60" as="geometry" />
        </mxCell>
        <mxCell id="1W4ZZB6r4rg8j5j9kjqg-4" value="Submit" style="ellipse;whiteSpace=wrap;html=1;" vertex="1" parent="1">
          <mxGeometry x="354" y="490" width="120" height="80" as="geometry" />
        </mxCell>
        <mxCell id="1W4ZZB6r4rg8j5j9kjqg-6" value="Attended Event" style="rounded=1;whiteSpace=wrap;html=1;" vertex="1" parent="1">
          <mxGeometry x="229" y="610" width="370" height="430" as="geometry" />
        </mxCell>
        <mxCell id="AQbRwxR0qypGxvgIrEKr-1" value="Location" style="rounded=1;whiteSpace=wrap;html=1;" vertex="1" parent="1">
          <mxGeometry x="249" y="350" width="330" height="60" as="geometry" />
        </mxCell>
      </root>
    </mxGraphModel>
  </diagram>
  <diagram id="a40Dr3qAoT4LmyT_d5jB" name="Events Memos">
    <mxGraphModel dx="2066" dy="1067" grid="1" gridSize="10" guides="1" tooltips="1" connect="1" arrows="1" fold="1" page="1" pageScale="1" pageWidth="827" pageHeight="1169" math="0" shadow="0">
      <root>
        <mxCell id="0" />
        <mxCell id="1" parent="0" />
        <mxCell id="XENi6L22Gln9wIvmQMwH-1" value="1.Event Name&lt;br&gt;2.Date&lt;br&gt;3.Time&lt;br&gt;4.Location&lt;br&gt;5.Max_limit&lt;br&gt;6.Current participant amount&amp;nbsp;" style="rounded=1;whiteSpace=wrap;html=1;" vertex="1" parent="1">
          <mxGeometry x="10" y="110" width="260" height="230" as="geometry" />
        </mxCell>
        <mxCell id="XENi6L22Gln9wIvmQMwH-2" value="" style="rounded=1;whiteSpace=wrap;html=1;" vertex="1" parent="1">
          <mxGeometry x="300" y="110" width="140" height="140" as="geometry" />
        </mxCell>
        <mxCell id="XENi6L22Gln9wIvmQMwH-3" value="" style="rounded=1;whiteSpace=wrap;html=1;" vertex="1" parent="1">
          <mxGeometry x="480" y="110" width="140" height="140" as="geometry" />
        </mxCell>
        <mxCell id="XENi6L22Gln9wIvmQMwH-4" value="" style="rounded=1;whiteSpace=wrap;html=1;" vertex="1" parent="1">
          <mxGeometry x="650" y="110" width="140" height="140" as="geometry" />
        </mxCell>
        <mxCell id="XENi6L22Gln9wIvmQMwH-5" value="Events" style="rounded=1;whiteSpace=wrap;html=1;" vertex="1" parent="1">
          <mxGeometry x="190" y="20" width="470" height="60" as="geometry" />
        </mxCell>
      </root>
    </mxGraphModel>
  </diagram>
</mxfile>
